%YAML 1.1
%TAG !u! tag:unity3d.com,2011:
--- !u!114 &11400000
MonoBehaviour:
  m_ObjectHideFlags: 0
  m_CorrespondingSourceObject: {fileID: 0}
  m_PrefabInstance: {fileID: 0}
  m_PrefabAsset: {fileID: 0}
  m_GameObject: {fileID: 0}
  m_Enabled: 1
  m_EditorHideFlags: 0
  m_Script: {fileID: 11500000, guid: 77cbb75fda100ac409343bb5a2e33ed3, type: 3}
  m_Name: Revolver
  m_EditorClassIdentifier: 
  IventoryItemImage: {fileID: 21300000, guid: 65977ff70cd01794f842c48c77db5298, type: 3}
  CursorTexture: {fileID: 2800000, guid: 80b528ccd997a504e8c8a1a6e1554efc, type: 3}
  MusicKey: 
  PickUp: {fileID: 0}
  WrongPNJ: {fileID: 8300000, guid: e790f72edbdcecc46a0715acf50554ec, type: 3}
  WrongDecor: {fileID: 8300000, guid: bc7ff1bdea77d4442b57e43fa3cac5f8, type: 3}
