%YAML 1.1
%TAG !u! tag:unity3d.com,2011:
--- !u!114 &11400000
MonoBehaviour:
  m_ObjectHideFlags: 0
  m_CorrespondingSourceObject: {fileID: 0}
  m_PrefabInstance: {fileID: 0}
  m_PrefabAsset: {fileID: 0}
  m_GameObject: {fileID: 0}
  m_Enabled: 1
  m_EditorHideFlags: 0
  m_Script: {fileID: 11500000, guid: 77cbb75fda100ac409343bb5a2e33ed3, type: 3}
  m_Name: TestItem
  m_EditorClassIdentifier: 
  IventoryItemImage: {fileID: 21300000, guid: 85dd440bd54b5a141b8868a13eac063d, type: 3}
  CursorTexture: {fileID: 2800000, guid: 0651108a8228aa346b4008c86f18eece, type: 3}
