%YAML 1.1
%TAG !u! tag:unity3d.com,2011:
--- !u!114 &11400000
MonoBehaviour:
  m_ObjectHideFlags: 0
  m_CorrespondingSourceObject: {fileID: 0}
  m_PrefabInstance: {fileID: 0}
  m_PrefabAsset: {fileID: 0}
  m_GameObject: {fileID: 0}
  m_Enabled: 1
  m_EditorHideFlags: 0
  m_Script: {fileID: 11500000, guid: 2c7c13b0965aae34c852c4c2a6d07940, type: 3}
  m_Name: "Paola - Soir\xE9e"
  m_EditorClassIdentifier: 
  PNJName: Paola
  PNJDial: "C\u2019est vrai, mais elle pourrait \xEAtre encore mieux si mon p\xE8re
    n'emp\xEAchait pas les hommes de la r\xE9ception \xE0 se tenir \xE9loign\xE9s"
  AToPNJAudio: {fileID: 0}
  PNJAudio: {fileID: 8300000, guid: 7ee202e183b082c40a0996e337ff8fe2, type: 3}
  LeaveAudio: {fileID: 8300000, guid: 0f15bc9a382ed9649afb1a1e2d013d7b, type: 3}
  ItemToGive: {fileID: 0}
  NextDialogue:
  - {fileID: 11400000}
  - {fileID: 11400000, guid: 92f4d50bc76e52c47b496e226f77b10e, type: 2}
  - {fileID: 11400000, guid: 6e771d4bfea0ec840bb70cdce66eee7e, type: 2}
  AudioChoices:
  - {fileID: 8300000, guid: 6fc02f783b3f4804fb077dd3fe55f704, type: 3}
  - {fileID: 8300000, guid: 164c6314192f4e0479a4393340bf1985, type: 3}
  - {fileID: 8300000, guid: 7ca3d00183a0c0c45afaf246a07a4c99, type: 3}
  - {fileID: 8300000, guid: 75958184de90fc547b33313ceaa3ccb8, type: 3}
  DialogueChoices:
  - "C\u2019est une soir\xE9e tr\xE8s agr\xE9able"
  - Comment as-tu su pour la rumeur ?
  - "Vous \xEAtes rayonnante ce soir, votre famille \xE0 toujours eu des femmes magnifique"
  - "Le devoir m\u2019appelle, je te souhaite une bonne soir\xE9e !"
  PNJSprite: {fileID: 21300000, guid: 442293a768f462942a6ebe010ea984d8, type: 3}
