%YAML 1.1
%TAG !u! tag:unity3d.com,2011:
--- !u!114 &11400000
MonoBehaviour:
  m_ObjectHideFlags: 0
  m_CorrespondingSourceObject: {fileID: 0}
  m_PrefabInstance: {fileID: 0}
  m_PrefabAsset: {fileID: 0}
  m_GameObject: {fileID: 0}
  m_Enabled: 1
  m_EditorHideFlags: 0
  m_Script: {fileID: 11500000, guid: 2c7c13b0965aae34c852c4c2a6d07940, type: 3}
  m_Name: S Assassocisone - Banane
  m_EditorClassIdentifier: 
  PNJName: Assassoscisone
  PNJDial: "Merci bien, c\u2019est toujours un plaisir de faire affaire avec toi.
    Personnellement, \xE7a ne m\u2019affecte pas plus que \xE7a de manger du saucisson."
  AToPNJAudio: {fileID: 8300000, guid: af6f6f7f7935cd8419ad10767f38fc82, type: 3}
  PNJAudio: {fileID: 8300000, guid: e99bfed39fa39eb4aae4fd4f265c317a, type: 3}
  LeaveAudio: {fileID: 8300000, guid: dacdbb2a8cd6ead40bc70c2faa2a30ae, type: 3}
  ItemToGive: {fileID: 11400000, guid: 7f8db08cd57a0c34cb26d16ba46dd02b, type: 2}
  NextDialogue:
  - {fileID: 11400000}
  - {fileID: 11400000, guid: 92b81618f7c36304188ca47a87a05a00, type: 2}
  - {fileID: 0}
  AudioChoices:
  - {fileID: 8300000, guid: 0d255c3437e97f84fb37e742efd26d91, type: 3}
  - {fileID: 8300000, guid: c00218225aac2f34f964f78d63e9c8ea, type: 3}
  - {fileID: 8300000, guid: 82c12a50cacba57439b0636279a279b6, type: 3}
  - {fileID: 8300000, guid: f721e8a837b193449ae98756281f6cd9, type: 3}
  DialogueChoices:
  - "Je viens de trouver un saucisson. C\u2019est pas un bizarre qu\u2019un saucisson
    mange un saucisson ? "
  - "Tu as entendu parler d\u2019une certaine rumeur qui circule ?"
  - "Comment \xE7a se fait qu\u2019un saucisson ait la capacit\xE9 de marcher et de
    parler comme un \xEAtre humain ? On peut te manger ?"
  - "Ca m\u2019a donn\xE9 faim tout \xE7a, je te laisse"
  PNJSprite: {fileID: 21300000, guid: 78b059406c1fea04f98b051e78748c1f, type: 3}
