%YAML 1.1
%TAG !u! tag:unity3d.com,2011:
--- !u!74 &7400000
AnimationClip:
  m_ObjectHideFlags: 0
  m_CorrespondingSourceObject: {fileID: 0}
  m_PrefabInstance: {fileID: 0}
  m_PrefabAsset: {fileID: 0}
  m_Name: DonPIdle
  serializedVersion: 6
  m_Legacy: 0
  m_Compressed: 0
  m_UseHighQualityCurve: 1
  m_RotationCurves: []
  m_CompressedRotationCurves: []
  m_EulerCurves: []
  m_PositionCurves: []
  m_ScaleCurves: []
  m_FloatCurves: []
  m_PPtrCurves:
  - curve:
    - time: 0
      value: {fileID: 21300000, guid: 8a9ef41adcd4f0e4d911b70dc076ca58, type: 3}
    - time: 0.033333335
      value: {fileID: 21300000, guid: 06db400d42eef554fafd4faa55ebe34a, type: 3}
    - time: 0.13333334
      value: {fileID: 21300000, guid: 83268b96a51981a4ea656b819b47aa25, type: 3}
    - time: 0.16666667
      value: {fileID: 21300000, guid: 29b4393ffa2cad845af231009dfae867, type: 3}
    - time: 0.23333333
      value: {fileID: 21300000, guid: 5e94a9616e550de4b9dd18bfee0bae9c, type: 3}
    - time: 0.33333334
      value: {fileID: 21300000, guid: a2e92b6754dd09e43bb8582a9e852468, type: 3}
    - time: 0.36666667
      value: {fileID: 21300000, guid: ecd4dc17752d62e46a545364e94a92f0, type: 3}
    - time: 0.38333333
      value: {fileID: 21300000, guid: 9f0c8545a903ca54696aeb988da12db1, type: 3}
    - time: 0.48333332
      value: {fileID: 21300000, guid: 1a5e6043dd6e25c4d9fd27943eb89015, type: 3}
    - time: 0.53333336
      value: {fileID: 21300000, guid: e242058984dec364182ab7b94e7c2e08, type: 3}
    - time: 0.6166667
      value: {fileID: 21300000, guid: 87b730cd06979f54a972130e166d30ba, type: 3}
    - time: 0.6666667
      value: {fileID: 21300000, guid: f4877e38c5dfde0459b4e710d63cbd03, type: 3}
    - time: 0.73333335
      value: {fileID: 21300000, guid: 8ec47968b0dbbd04eb3de81eeef4e496, type: 3}
    - time: 0.8
      value: {fileID: 21300000, guid: 04ee47668fe122d469d9268bb68d4766, type: 3}
    - time: 0.8666667
      value: {fileID: 21300000, guid: 282dd69845686c54db8928e90e09d8d4, type: 3}
    - time: 0.9
      value: {fileID: 21300000, guid: 10641feeca69bcb4393f8dff0be475cc, type: 3}
    - time: 1
      value: {fileID: 21300000, guid: 34b4421249f4dfc4b9aa919173de141e, type: 3}
    - time: 1.0333333
      value: {fileID: 21300000, guid: 84e67a6f9c185394daa36eaae7277f96, type: 3}
    - time: 1.1166667
      value: {fileID: 21300000, guid: bf2a806974187f24ca9d5376914e5eb6, type: 3}
    - time: 1.1666666
      value: {fileID: 21300000, guid: 7deede7e51d8b484fb147640c766ddce, type: 3}
    - time: 1.2
      value: {fileID: 21300000, guid: 09aab47ba04302c4f91fb197d4a5ddd5, type: 3}
    - time: 1.2666667
      value: {fileID: 21300000, guid: fa34636e955ec1e4dbdf6497a4b71be1, type: 3}
    - time: 1.3333334
      value: {fileID: 21300000, guid: ef83e2d98602bf34a94bf6ca04034e07, type: 3}
    - time: 1.3833333
      value: {fileID: 21300000, guid: 2b0db173725a05246b0f816cd5dfaa8f, type: 3}
    - time: 1.45
      value: {fileID: 21300000, guid: bfc58a955cd79394985d90d39b9a619a, type: 3}
    - time: 1.5333333
      value: {fileID: 21300000, guid: 7218faeb41c41bf479396e899e28b91c, type: 3}
    - time: 1.6
      value: {fileID: 21300000, guid: 2d00de424197ac149b67de1cca162525, type: 3}
    - time: 1.6666666
      value: {fileID: 21300000, guid: 3482dd38f0387954ab1e88cf588b3e49, type: 3}
    - time: 1.7166667
      value: {fileID: 21300000, guid: 836c14f244afa4040befd474ba31fb49, type: 3}
    - time: 1.7833333
      value: {fileID: 21300000, guid: e0b376fa57451ab49ada278da2bf50f3, type: 3}
    - time: 1.85
      value: {fileID: 21300000, guid: b43ddb17cdf9c9643a5c2a546abb5fdc, type: 3}
    - time: 1.9
      value: {fileID: 21300000, guid: 7e88043eb83ffb14287dac7bc72d82ce, type: 3}
    - time: 1.9666667
      value: {fileID: 21300000, guid: 10c7bf38a50d8e046ad026098c9f8188, type: 3}
    - time: 2.0333333
      value: {fileID: 21300000, guid: 4d388395860706b4e9505905c4d0826c, type: 3}
    - time: 2.1
      value: {fileID: 21300000, guid: 2d09c15563121c04b96b9a04ae01b257, type: 3}
    - time: 2.15
      value: {fileID: 21300000, guid: fcf675b18b7565740956d64000aff7e4, type: 3}
    - time: 2.2166667
      value: {fileID: 21300000, guid: 6a8fd76d1f562654ba8e15a6da7410a7, type: 3}
    - time: 2.2833333
      value: {fileID: 21300000, guid: ae0abf6c76a3cd246a731769208a2b96, type: 3}
    - time: 2.3333333
      value: {fileID: 21300000, guid: 3a83556fb8dc63f4da045e02884477dd, type: 3}
    - time: 2.4
      value: {fileID: 21300000, guid: 2e61016240576f249bb1993603d027ce, type: 3}
    - time: 2.4666667
      value: {fileID: 21300000, guid: 5efdcc7b4f1afe147b8989b6cb731013, type: 3}
    - time: 2.55
      value: {fileID: 21300000, guid: e3d3afd83b687cc449fc92300e2e2cb8, type: 3}
    - time: 2.6166666
      value: {fileID: 21300000, guid: d4ac35f3b472bba408db0e68909e35e9, type: 3}
    - time: 2.6666667
      value: {fileID: 21300000, guid: 958c7f8810ab9fc42852220c3c2778bd, type: 3}
    - time: 2.7333333
      value: {fileID: 21300000, guid: 6da3eba17f1ff27478c69dc6a0045497, type: 3}
    - time: 2.8
      value: {fileID: 21300000, guid: 80bf3e3e210068a4785931690ea95ea3, type: 3}
    - time: 2.8333333
      value: {fileID: 21300000, guid: 99f5d08e0d75c7846ab0ce1fbc0e315e, type: 3}
    - time: 2.8833334
      value: {fileID: 21300000, guid: b49d524236a3fbb4dad17cd332c96da7, type: 3}
    - time: 2.9666667
      value: {fileID: 21300000, guid: 15e9106543140e34485cea05fa9e875e, type: 3}
    - time: 3
      value: {fileID: 21300000, guid: 3ad915c698bef4a4bac125055526c22e, type: 3}
    - time: 3.1
      value: {fileID: 21300000, guid: 179682cd07a97804a95e4c3cfb8a118c, type: 3}
    - time: 3.1333334
      value: {fileID: 21300000, guid: 2ab8bbe427a22c947ba7c85be09ea7f0, type: 3}
    - time: 3.2
      value: {fileID: 21300000, guid: e673a9d7b0f7fe347bf58793068f5cc2, type: 3}
    - time: 3.2666667
      value: {fileID: 21300000, guid: 3caaac47546554b43aa1df6314e7f859, type: 3}
    - time: 3.3333333
      value: {fileID: 21300000, guid: 2cb326f6fe506464387cbbeecc1cafd8, type: 3}
    - time: 3.3833334
      value: {fileID: 21300000, guid: e70ed018d87226e498a9deb44843bb1b, type: 3}
    - time: 3.4666667
      value: {fileID: 21300000, guid: 8d1f9cfcc0a2a4e42a2a51cb22ecca68, type: 3}
    - time: 3.5166667
      value: {fileID: 21300000, guid: aad5a73736de70f43bc6f0534a93c044, type: 3}
    - time: 3.6166666
      value: {fileID: 21300000, guid: 9018f6757eb3e6a40ac73eccf7773199, type: 3}
    - time: 3.6333334
      value: {fileID: 21300000, guid: 8eea0d2349037a54c9a64aaf472ca6bf, type: 3}
    - time: 3.6666667
      value: {fileID: 21300000, guid: dfc3662f032bc3149b953badc979add0, type: 3}
    - time: 3.7666667
      value: {fileID: 21300000, guid: 62985d06e0ae33c49a21f622ef11ba59, type: 3}
    - time: 3.8333333
      value: {fileID: 21300000, guid: 2e50f32b9784c6f448b731cba720428c, type: 3}
    - time: 3.8666666
      value: {fileID: 21300000, guid: 4f473c6b1e5b94f479cdc6c9af78b513, type: 3}
    - time: 3.9666667
      value: {fileID: 21300000, guid: 85fad9f604274da499d7736d7ffa706e, type: 3}
    - time: 4
      value: {fileID: 21300000, guid: e2f56852b4bafb6488d1ee332be863bd, type: 3}
    attribute: m_Sprite
    path: 
    classID: 212
    script: {fileID: 0}
  m_SampleRate: 60
  m_WrapMode: 0
  m_Bounds:
    m_Center: {x: 0, y: 0, z: 0}
    m_Extent: {x: 0, y: 0, z: 0}
  m_ClipBindingConstant:
    genericBindings:
    - serializedVersion: 2
      path: 0
      attribute: 0
      script: {fileID: 0}
      typeID: 212
      customType: 23
      isPPtrCurve: 1
    pptrCurveMapping:
    - {fileID: 21300000, guid: 8a9ef41adcd4f0e4d911b70dc076ca58, type: 3}
    - {fileID: 21300000, guid: 06db400d42eef554fafd4faa55ebe34a, type: 3}
    - {fileID: 21300000, guid: 83268b96a51981a4ea656b819b47aa25, type: 3}
    - {fileID: 21300000, guid: 29b4393ffa2cad845af231009dfae867, type: 3}
    - {fileID: 21300000, guid: 5e94a9616e550de4b9dd18bfee0bae9c, type: 3}
    - {fileID: 21300000, guid: a2e92b6754dd09e43bb8582a9e852468, type: 3}
    - {fileID: 21300000, guid: ecd4dc17752d62e46a545364e94a92f0, type: 3}
    - {fileID: 21300000, guid: 9f0c8545a903ca54696aeb988da12db1, type: 3}
    - {fileID: 21300000, guid: 1a5e6043dd6e25c4d9fd27943eb89015, type: 3}
    - {fileID: 21300000, guid: e242058984dec364182ab7b94e7c2e08, type: 3}
    - {fileID: 21300000, guid: 87b730cd06979f54a972130e166d30ba, type: 3}
    - {fileID: 21300000, guid: f4877e38c5dfde0459b4e710d63cbd03, type: 3}
    - {fileID: 21300000, guid: 8ec47968b0dbbd04eb3de81eeef4e496, type: 3}
    - {fileID: 21300000, guid: 04ee47668fe122d469d9268bb68d4766, type: 3}
    - {fileID: 21300000, guid: 282dd69845686c54db8928e90e09d8d4, type: 3}
    - {fileID: 21300000, guid: 10641feeca69bcb4393f8dff0be475cc, type: 3}
    - {fileID: 21300000, guid: 34b4421249f4dfc4b9aa919173de141e, type: 3}
    - {fileID: 21300000, guid: 84e67a6f9c185394daa36eaae7277f96, type: 3}
    - {fileID: 21300000, guid: bf2a806974187f24ca9d5376914e5eb6, type: 3}
    - {fileID: 21300000, guid: 7deede7e51d8b484fb147640c766ddce, type: 3}
    - {fileID: 21300000, guid: 09aab47ba04302c4f91fb197d4a5ddd5, type: 3}
    - {fileID: 21300000, guid: fa34636e955ec1e4dbdf6497a4b71be1, type: 3}
    - {fileID: 21300000, guid: ef83e2d98602bf34a94bf6ca04034e07, type: 3}
    - {fileID: 21300000, guid: 2b0db173725a05246b0f816cd5dfaa8f, type: 3}
    - {fileID: 21300000, guid: bfc58a955cd79394985d90d39b9a619a, type: 3}
    - {fileID: 21300000, guid: 7218faeb41c41bf479396e899e28b91c, type: 3}
    - {fileID: 21300000, guid: 2d00de424197ac149b67de1cca162525, type: 3}
    - {fileID: 21300000, guid: 3482dd38f0387954ab1e88cf588b3e49, type: 3}
    - {fileID: 21300000, guid: 836c14f244afa4040befd474ba31fb49, type: 3}
    - {fileID: 21300000, guid: e0b376fa57451ab49ada278da2bf50f3, type: 3}
    - {fileID: 21300000, guid: b43ddb17cdf9c9643a5c2a546abb5fdc, type: 3}
    - {fileID: 21300000, guid: 7e88043eb83ffb14287dac7bc72d82ce, type: 3}
    - {fileID: 21300000, guid: 10c7bf38a50d8e046ad026098c9f8188, type: 3}
    - {fileID: 21300000, guid: 4d388395860706b4e9505905c4d0826c, type: 3}
    - {fileID: 21300000, guid: 2d09c15563121c04b96b9a04ae01b257, type: 3}
    - {fileID: 21300000, guid: fcf675b18b7565740956d64000aff7e4, type: 3}
    - {fileID: 21300000, guid: 6a8fd76d1f562654ba8e15a6da7410a7, type: 3}
    - {fileID: 21300000, guid: ae0abf6c76a3cd246a731769208a2b96, type: 3}
    - {fileID: 21300000, guid: 3a83556fb8dc63f4da045e02884477dd, type: 3}
    - {fileID: 21300000, guid: 2e61016240576f249bb1993603d027ce, type: 3}
    - {fileID: 21300000, guid: 5efdcc7b4f1afe147b8989b6cb731013, type: 3}
    - {fileID: 21300000, guid: e3d3afd83b687cc449fc92300e2e2cb8, type: 3}
    - {fileID: 21300000, guid: d4ac35f3b472bba408db0e68909e35e9, type: 3}
    - {fileID: 21300000, guid: 958c7f8810ab9fc42852220c3c2778bd, type: 3}
    - {fileID: 21300000, guid: 6da3eba17f1ff27478c69dc6a0045497, type: 3}
    - {fileID: 21300000, guid: 80bf3e3e210068a4785931690ea95ea3, type: 3}
    - {fileID: 21300000, guid: 99f5d08e0d75c7846ab0ce1fbc0e315e, type: 3}
    - {fileID: 21300000, guid: b49d524236a3fbb4dad17cd332c96da7, type: 3}
    - {fileID: 21300000, guid: 15e9106543140e34485cea05fa9e875e, type: 3}
    - {fileID: 21300000, guid: 3ad915c698bef4a4bac125055526c22e, type: 3}
    - {fileID: 21300000, guid: 179682cd07a97804a95e4c3cfb8a118c, type: 3}
    - {fileID: 21300000, guid: 2ab8bbe427a22c947ba7c85be09ea7f0, type: 3}
    - {fileID: 21300000, guid: e673a9d7b0f7fe347bf58793068f5cc2, type: 3}
    - {fileID: 21300000, guid: 3caaac47546554b43aa1df6314e7f859, type: 3}
    - {fileID: 21300000, guid: 2cb326f6fe506464387cbbeecc1cafd8, type: 3}
    - {fileID: 21300000, guid: e70ed018d87226e498a9deb44843bb1b, type: 3}
    - {fileID: 21300000, guid: 8d1f9cfcc0a2a4e42a2a51cb22ecca68, type: 3}
    - {fileID: 21300000, guid: aad5a73736de70f43bc6f0534a93c044, type: 3}
    - {fileID: 21300000, guid: 9018f6757eb3e6a40ac73eccf7773199, type: 3}
    - {fileID: 21300000, guid: 8eea0d2349037a54c9a64aaf472ca6bf, type: 3}
    - {fileID: 21300000, guid: dfc3662f032bc3149b953badc979add0, type: 3}
    - {fileID: 21300000, guid: 62985d06e0ae33c49a21f622ef11ba59, type: 3}
    - {fileID: 21300000, guid: 2e50f32b9784c6f448b731cba720428c, type: 3}
    - {fileID: 21300000, guid: 4f473c6b1e5b94f479cdc6c9af78b513, type: 3}
    - {fileID: 21300000, guid: 85fad9f604274da499d7736d7ffa706e, type: 3}
    - {fileID: 21300000, guid: e2f56852b4bafb6488d1ee332be863bd, type: 3}
  m_AnimationClipSettings:
    serializedVersion: 2
    m_AdditiveReferencePoseClip: {fileID: 0}
    m_AdditiveReferencePoseTime: 0
    m_StartTime: 0
    m_StopTime: 4.016667
    m_OrientationOffsetY: 0
    m_Level: 0
    m_CycleOffset: 0
    m_HasAdditiveReferencePose: 0
    m_LoopTime: 1
    m_LoopBlend: 0
    m_LoopBlendOrientation: 0
    m_LoopBlendPositionY: 0
    m_LoopBlendPositionXZ: 0
    m_KeepOriginalOrientation: 0
    m_KeepOriginalPositionY: 1
    m_KeepOriginalPositionXZ: 0
    m_HeightFromFeet: 0
    m_Mirror: 0
  m_EditorCurves: []
  m_EulerEditorCurves: []
  m_HasGenericRootTransform: 0
  m_HasMotionFloatCurves: 0
  m_Events: []
