%YAML 1.1
%TAG !u! tag:unity3d.com,2011:
--- !u!114 &11400000
MonoBehaviour:
  m_ObjectHideFlags: 0
  m_CorrespondingSourceObject: {fileID: 0}
  m_PrefabInstance: {fileID: 0}
  m_PrefabAsset: {fileID: 0}
  m_GameObject: {fileID: 0}
  m_Enabled: 1
  m_EditorHideFlags: 0
  m_Script: {fileID: 11500000, guid: 2c7c13b0965aae34c852c4c2a6d07940, type: 3}
  m_Name: Francis - Intro
  m_EditorClassIdentifier: 
  PNJName: Inspecteur Francis
  PNJDial: "Montre moi \xE7a."
  AToPNJAudio: {fileID: 8300000, guid: 8756c4ceb9f3f3d4787dd417f7b5fba0, type: 3}
  PNJAudio: {fileID: 0}
  LeaveAudio: {fileID: 0}
  ItemToGive: {fileID: 0}
  NextDialogue:
  - {fileID: 11400000, guid: c56f41ada0831464aaaa0757d2036b4f, type: 2}
  - {fileID: 11400000, guid: a5c4e44d53bd6b942bda351562e72490, type: 2}
  - {fileID: 11400000, guid: 0bef89793743f5b46bd058737339cf39, type: 2}
  AudioChoices:
  - {fileID: 8300000, guid: 1081ea1fd360fcc4ba3890b0d2b77da7, type: 3}
  - {fileID: 8300000, guid: 1108d7403215c1047af340ba0b7038fd, type: 3}
  - {fileID: 8300000, guid: fb27bf6ee7842e249be1ef84651e5d6d, type: 3}
  - {fileID: 8300000, guid: 785fb48741bdc0c47a3c60b180e79c71, type: 3}
  DialogueChoices:
  - "Qu\u2019est-ce que vous pensez de la photo ?"
  - Vous pensez que la photo peut avoir un lien avec la rumeur ?
  - "Vous n\u2019\xEAtes pas oblig\xE9 de rester dans votre coin toute la soir\xE9e"
  - "Je ne vous d\xE9range pas plus longtemps, je dois y aller"
  PNJSprite: {fileID: 21300000, guid: 31352bd442355874e84df6d0d6c866b3, type: 3}
